How to use the FARS Functions
…
The file to be read, passed as a character string parameter (filename), must exist in the current working directory. CSV file can also be compressed as allowed by the readr package’s read_csv() function. If the file does not exist in the current working directory, this function stops execution with an error message: “file <filename> does not exist”.

It returns an object of class “tbl_df” (table dataframe) from the dplyr package. This function imports the following functions:

read_csv() from the readr package, and

tbl_df() from the dply package.

Examples:

library(BuildingRPackagesCoursera)
BuildingRPackagesCoursera:::fars_read("accident_2014.csv.bz2") # file exists in current working directory

## # A tibble: 30,056 x 50
##    STATE ST_CASE VE_TOTAL VE_FORMS PVH_INVL  PEDS PERNOTMVIT PERMVIT
##    <int>   <int>    <int>    <int>    <int> <int>      <int>   <int>
## 1      1   10001        1        1        0     0          0       2
## 2      1   10002        1        1        0     0          0       1
## 3      1   10003        2        2        0     0          0       7
## 4      1   10004        3        3        0     0          0       5
## 5      1   10005        1        1        0     0          0       1
## 6      1   10006        1        1        0     0          0       1
## 7      1   10007        3        2        1     0          0       2
## 8      1   10008        2        2        0     0          0       4
## 9      1   10009        3        3        0     0          0       5
## 10     1   10010        2        2        0     0          0       6
## # ... with 30,046 more rows, and 42 more variables: PERSONS <int>,
## #   COUNTY <int>, CITY <int>, DAY <int>, MONTH <int>, YEAR <int>,
## #   DAY_WEEK <int>, HOUR <int>, MINUTE <int>, NHS <int>, ROAD_FNC <int>,
## #   ROUTE <int>, TWAY_ID <chr>, TWAY_ID2 <chr>, MILEPT <int>,
## #   LATITUDE <dbl>, LONGITUD <dbl>, SP_JUR <int>, HARM_EV <int>,
## #   MAN_COLL <int>, RELJCT1 <int>, RELJCT2 <int>, TYP_INT <int>,
## #   WRK_ZONE <int>, REL_ROAD <int>, LGT_COND <int>, WEATHER1 <int>,
## #   WEATHER2 <int>, WEATHER <int>, SCH_BUS <int>, RAIL <chr>,
## #   NOT_HOUR <int>, NOT_MIN <int>, ARR_HOUR <int>, ARR_MIN <int>,
…
## 
## Attaching package: 'dplyr'

## The following objects are masked from 'package:stats':
## 
##     filter, lag

## The following objects are masked from 'package:base':
## 
##     intersect, setdiff, setequal, union

BuildingRPackagesCoursera:::fars_read_years(c(2013, 2014, 2015))

## [[1]]
## # A tibble: 30,202 x 2
##    MONTH  year
##    <int> <dbl>
## 1      1  2013
## 2      1  2013
## 3      1  2013
## 4      1  2013
## 5      1  2013
## 6      1  2013
## 7      1  2013
## 8      1  2013
## 9      1  2013
## 10     1  2013
## # ... with 30,192 more rows
## 
## [[2]]
## # A tibble: 30,056 x 2
##    MONTH  year
##    <int> <dbl>
## 1      1  2014
## 2      1  2014
## 3      1  2014
## 4      1  2014
## 5      1  2014
## 6      1  2014
## 7      1  2014
## 8      1  2014
## 9      1  2014
## 10     1  2014
## # ... with 30,046 more rows
## 
## [[3]]
## # A tibble: 32,166 x 2
##    MONTH  year
##    <int> <dbl>
## 1      1  2015
## 2      1  2015
## 3      1  2015
## 4      1  2015
## 5      1  2015
## 6      1  2015
## 7      1  2015
## 8      1  2015
## 9      1  2015
## 10     1  2015
## # ... with 32,156 more rows

# BuildingRPackagesCoursera:::fars_read_years(2013:2015) #same as above
# BuildingRPackagesCoursera:::fars_read_years(list(2013, 2014, 2015)) #same as above
BuildingRPackagesCoursera:::fars_read_years(2013:2016)

## Warning in value[[3L]](cond): invalid year: 2016

## [[1]]
## # A tibble: 30,202 x 2
##    MONTH  year
##    <int> <int>
## 1      1  2013
## 2      1  2013
## 3      1  2013
## 4      1  2013
## 5      1  2013
## 6      1  2013
## 7      1  2013
## 8      1  2013
## 9      1  2013
## 10     1  2013
## # ... with 30,192 more rows
## 
## [[2]]
## # A tibble: 30,056 x 2
##    MONTH  year
##    <int> <int>
## 1      1  2014
## 2      1  2014
## 3      1  2014
## 4      1  2014
## 5      1  2014
## 6      1  2014
## 7      1  2014
## 8      1  2014
## 9      1  2014
## 10     1  2014
## # ... with 30,046 more rows
## 
## [[3]]
## # A tibble: 32,166 x 2
##    MONTH  year
##    <int> <int>
## 1      1  2015
## 2      1  2015
## 3      1  2015
## 4      1  2015
## 5      1  2015
## 6      1  2015
## 7      1  2015
## 8      1  2015
## 9      1  2015
## 10     1  2015
## # ... with 32,156 more rows
## 
## [[4]]
## NULL
…
